../Core/Src/main.c:107:6:HAL_GPIO_EXTI_Callback	24	static
../Core/Src/main.c:120:6:parse_rx_data	32	static
../Core/Src/main.c:135:6:HAL_UART_RxCpltCallback	24	static
../Core/Src/main.c:178:5:main	16	static
../Core/Src/main.c:280:6:SystemClock_Config	96	static
../Core/Src/main.c:326:13:MX_I2C1_Init	8	static
../Core/Src/main.c:374:13:MX_SPI1_Init	8	static
../Core/Src/main.c:414:13:MX_TIM3_Init	56	static
../Core/Src/main.c:463:13:MX_USART2_UART_Init	8	static
../Core/Src/main.c:498:13:MX_GPIO_Init	40	static
../Core/Src/main.c:577:6:Error_Handler	4	static,ignoring_inline_asm
