Detection_Efficiency Delay(bins) Delay (ps) 
1.009132 1022.4909148226052 5112.454574113026
1.008933 934.8464288637165 4674.232144318583
1.008956 836.8228358515048 4184.114179257524
1.008702 745.1101248590107 3725.5506242950537
1.007716 648.1494074246584 3240.747037123292
1.009508 553.2589637240458 2766.294818620229
1.006169 457.6403491277524 2288.201745638762
1.005208 364.9249562738505 1824.6247813692526
1.006328 273.27098077699293 1366.3549038849646
0.864046 177.8317281530749 889.1586407653745
