Detection_Efficiency Delay(bins) Delay (ps) 
0.761261 81.47531360091716 407.3765680045858
0.761674 103.58043857408074 517.9021928704037
0.762086 116.0600608968889 580.3003044844445
0.762299 140.3754649967118 701.877324983559
0.765955 157.16710845564967 785.8355422782483
0.959536 194.31767522145537 971.5883761072769
1.008274 212.4730565403429 1062.3652827017145
0.762653 80.48873091801215 402.44365459006076
0.762607 102.48006173323438 512.4003086661719
0.762340 118.08815495148247 590.4407747574123
0.762726 139.44004368352716 697.2002184176358
0.766255 155.49578064618117 777.4789032309059
0.816490 177.95761545004325 889.7880772502162
0.882397 195.31678517542605 976.5839258771302
1.002420 213.51583599591368 1067.5791799795684
0.765356 80.20178644559383 401.0089322279691
0.766160 101.4878693940118 507.439346970059
0.765472 119.68671662694942 598.4335831347471
0.764390 139.52975812492014 697.6487906246007
0.765388 159.12932263428957 795.6466131714478
0.768304 175.68636599604724 878.4318299802362
