(kicad_symbol_lib (version 20211014) (generator kicad_symbol_editor)
  (symbol "LMH6401IRMZR" (pin_names (offset 0.254)) (in_bom yes) (on_board yes)
    (property "Reference" "U" (id 0) (at 20.32 10.16 0)
      (effects (font (size 1.524 1.524)))
    )
    (property "Value" "LMH6401IRMZR" (id 1) (at 20.32 7.62 0)
      (effects (font (size 1.524 1.524)))
    )
    (property "Footprint" "RMZ16_TEX" (id 2) (at 0 0 0)
      (effects (font (size 1.27 1.27) italic) hide)
    )
    (property "Datasheet" "LMH6401IRMZR" (id 3) (at 0 0 0)
      (effects (font (size 1.27 1.27) italic) hide)
    )
    (property "ki_keywords" "LMH6401IRMZR" (id 4) (at 0 0 0)
      (effects (font (size 1.27 1.27)) hide)
    )
    (property "ki_locked" "" (id 5) (at 0 0 0)
      (effects (font (size 1.27 1.27)) hide)
    )
    (property "ki_fp_filters" "RMZ16_TEX RMZ16_TEX-M RMZ16_TEX-L" (id 6) (at 0 0 0)
      (effects (font (size 1.27 1.27)) hide)
    )
    (symbol "LMH6401IRMZR_0_1"
      (polyline
        (pts
          (xy 7.62 5.08)
          (xy 7.62 -27.94)
        )
        (stroke (width 0.127) (type default) (color 0 0 0 0))
        (fill (type none))
      )
      (polyline
        (pts
          (xy 7.62 -27.94)
          (xy 33.02 -27.94)
        )
        (stroke (width 0.127) (type default) (color 0 0 0 0))
        (fill (type none))
      )
      (polyline
        (pts
          (xy 33.02 -27.94)
          (xy 33.02 5.08)
        )
        (stroke (width 0.127) (type default) (color 0 0 0 0))
        (fill (type none))
      )
      (polyline
        (pts
          (xy 33.02 5.08)
          (xy 7.62 5.08)
        )
        (stroke (width 0.127) (type default) (color 0 0 0 0))
        (fill (type none))
      )
      (pin input line (at 0 0 0) (length 7.62)
        (name "SDI" (effects (font (size 1.27 1.27))))
        (number "1" (effects (font (size 1.27 1.27))))
      )
      (pin input line (at 0 -2.54 0) (length 7.62)
        (name "INP" (effects (font (size 1.27 1.27))))
        (number "2" (effects (font (size 1.27 1.27))))
      )
      (pin input line (at 0 -5.08 0) (length 7.62)
        (name "INM" (effects (font (size 1.27 1.27))))
        (number "3" (effects (font (size 1.27 1.27))))
      )
      (pin output line (at 0 -7.62 0) (length 7.62)
        (name "SDO" (effects (font (size 1.27 1.27))))
        (number "4" (effects (font (size 1.27 1.27))))
      )
      (pin power_in line (at 0 -10.16 0) (length 7.62)
        (name "VS-" (effects (font (size 1.27 1.27))))
        (number "5" (effects (font (size 1.27 1.27))))
      )
      (pin input line (at 0 -12.7 0) (length 7.62)
        (name "PD" (effects (font (size 1.27 1.27))))
        (number "6" (effects (font (size 1.27 1.27))))
      )
      (pin input line (at 0 -15.24 0) (length 7.62)
        (name "VOCM" (effects (font (size 1.27 1.27))))
        (number "7" (effects (font (size 1.27 1.27))))
      )
      (pin power_in line (at 0 -17.78 0) (length 7.62)
        (name "VS+" (effects (font (size 1.27 1.27))))
        (number "8" (effects (font (size 1.27 1.27))))
      )
      (pin power_in line (at 0 -20.32 0) (length 7.62)
        (name "GND" (effects (font (size 1.27 1.27))))
        (number "9" (effects (font (size 1.27 1.27))))
      )
      (pin output line (at 0 -22.86 0) (length 7.62)
        (name "OUTM" (effects (font (size 1.27 1.27))))
        (number "10" (effects (font (size 1.27 1.27))))
      )
      (pin output line (at 40.64 -22.86 180) (length 7.62)
        (name "OUTP" (effects (font (size 1.27 1.27))))
        (number "11" (effects (font (size 1.27 1.27))))
      )
      (pin power_in line (at 40.64 -20.32 180) (length 7.62)
        (name "GND" (effects (font (size 1.27 1.27))))
        (number "12" (effects (font (size 1.27 1.27))))
      )
      (pin power_in line (at 40.64 -17.78 180) (length 7.62)
        (name "VS+" (effects (font (size 1.27 1.27))))
        (number "13" (effects (font (size 1.27 1.27))))
      )
      (pin input line (at 40.64 -15.24 180) (length 7.62)
        (name "SCLK" (effects (font (size 1.27 1.27))))
        (number "14" (effects (font (size 1.27 1.27))))
      )
      (pin input line (at 40.64 -12.7 180) (length 7.62)
        (name "*CS" (effects (font (size 1.27 1.27))))
        (number "15" (effects (font (size 1.27 1.27))))
      )
      (pin power_in line (at 40.64 -10.16 180) (length 7.62)
        (name "VS-" (effects (font (size 1.27 1.27))))
        (number "16" (effects (font (size 1.27 1.27))))
      )
      (pin unspecified line (at 40.64 -7.62 180) (length 7.62)
        (name "EPAD" (effects (font (size 1.27 1.27))))
        (number "17" (effects (font (size 1.27 1.27))))
      )
      (pin unspecified line (at 40.64 -5.08 180) (length 7.62)
        (name "EPAD" (effects (font (size 1.27 1.27))))
        (number "18" (effects (font (size 1.27 1.27))))
      )
      (pin unspecified line (at 40.64 -2.54 180) (length 7.62)
        (name "EPAD" (effects (font (size 1.27 1.27))))
        (number "19" (effects (font (size 1.27 1.27))))
      )
      (pin unspecified line (at 40.64 0 180) (length 7.62)
        (name "EPAD" (effects (font (size 1.27 1.27))))
        (number "20" (effects (font (size 1.27 1.27))))
      )
    )
  )
)

