(footprint "CON10_2X5_DUK_FTSH_SAI" (version 20211014) (generator pcbnew)
  (layer "F.Cu")
  (tags "FTSH-105-01-L-DV-K ")
  (attr smd)
  (fp_text reference "REF**" (at 0 0 unlocked) (layer F.SilkS)
    (effects (font (size 1 1) (thickness 0.15)))
  )
  (fp_text value CON10_2X5_DUK_FTSH_SAI (at 0 0 unlocked) (layer F.Fab)
    (effects (font (size 1 1) (thickness 0.15)))
  )
  (fp_text user "${REFERENCE}" (at 0 0 unlocked) (layer F.Fab)
    (effects (font (size 1 1) (thickness 0.15)))
  )
  (fp_poly (pts
      (xy 2.413 2.6035)
      (xy 2.413 2.9845)
      (xy 2.667 2.9845)
      (xy 2.667 2.6035)
    ) (layer "F.SilkS") (width 0) (fill solid))
  (fp_line (start -3.683 3.048) (end -3.683 -3.048) (layer "F.CrtYd") (width 0.1524))
  (fp_line (start -3.683 -3.048) (end -3.2512 -3.048) (layer "F.CrtYd") (width 0.1524))
  (fp_line (start -3.2512 -3.048) (end -3.2512 -3.9878) (layer "F.CrtYd") (width 0.1524))
  (fp_line (start -3.2512 3.9878) (end 3.2512 3.9878) (layer "F.CrtYd") (width 0.1524))
  (fp_line (start 3.2512 -3.9878) (end 3.2512 -3.048) (layer "F.CrtYd") (width 0.1524))
  (fp_line (start 3.2512 -3.048) (end 3.683 -3.048) (layer "F.CrtYd") (width 0.1524))
  (fp_line (start 3.683 -3.048) (end 3.683 3.048) (layer "F.CrtYd") (width 0.1524))
  (fp_line (start 3.683 3.048) (end 3.2512 3.048) (layer "F.CrtYd") (width 0.1524))
  (fp_line (start 3.2512 3.048) (end 3.2512 3.9878) (layer "F.CrtYd") (width 0.1524))
  (fp_line (start 3.2512 -3.9878) (end -3.2512 -3.9878) (layer "F.CrtYd") (width 0.1524))
  (fp_line (start -3.2512 3.9878) (end -3.2512 3.048) (layer "F.CrtYd") (width 0.1524))
  (fp_line (start -3.2512 3.048) (end -3.683 3.048) (layer "F.CrtYd") (width 0.1524))
  (fp_line (start -2.54 3.81254) (end -1.905 5.08254) (layer "F.SilkS") (width 0.1524))
  (fp_line (start -1.905 5.08254) (end -3.175 5.08254) (layer "F.SilkS") (width 0.1524))
  (fp_line (start -3.175 5.08254) (end -2.54 3.81254) (layer "F.SilkS") (width 0.1524))
  (fp_line (start -2.54 3.81254) (end -1.905 5.08254) (layer "F.Fab") (width 0.0254))
  (fp_line (start -1.905 5.08254) (end -3.175 5.08254) (layer "F.Fab") (width 0.0254))
  (fp_line (start -3.175 5.08254) (end -2.54 3.81254) (layer "F.Fab") (width 0.0254))
  (fp_text user "2" (at -3.683 -2.0828 unlocked) (layer "F.SilkS")
    (effects (font (size 1 1) (thickness 0.15)))
  )
  (fp_text user "2" (at -3.683 -2.0828 unlocked) (layer "F.Fab")
    (effects (font (size 1 1) (thickness 0.15)))
  )
  (fp_text user "1" (at -3.683 2.0828 unlocked) (layer "F.SilkS")
    (effects (font (size 1 1) (thickness 0.15)))
  )
  (fp_text user "1" (at -3.683 2.0828 unlocked) (layer "F.Fab")
    (effects (font (size 1 1) (thickness 0.15)))
  )
  (fp_text user "10" (at 3.683 -2.0828 unlocked) (layer "F.SilkS")
    (effects (font (size 1 1) (thickness 0.15)))
  )
  (fp_text user "10" (at 3.683 -2.0828 unlocked) (layer "F.Fab")
    (effects (font (size 1 1) (thickness 0.15)))
  )
  (fp_text user "9" (at 3.683 2.0828 unlocked) (layer "F.SilkS")
    (effects (font (size 1 1) (thickness 0.15)))
  )
  (fp_text user "9" (at 3.683 2.0828 unlocked) (layer "F.Fab")
    (effects (font (size 1 1) (thickness 0.15)))
  )
  (fp_line (start 3.302 2.667) (end 3.302 -2.667) (layer "F.SilkS") (width 0.1524))
  (fp_line (start -3.302 -2.667) (end -3.302 2.667) (layer "F.SilkS") (width 0.1524))
  (fp_line (start -3.175 2.54) (end 3.175 2.54) (layer "F.Fab") (width 0.0254))
  (fp_line (start 3.175 2.54) (end 3.175 -2.54) (layer "F.Fab") (width 0.0254))
  (fp_line (start 3.175 -2.54) (end -3.175 -2.54) (layer "F.Fab") (width 0.0254))
  (fp_line (start -3.175 -2.54) (end -3.175 2.54) (layer "F.Fab") (width 0.0254))
  (pad "1" smd rect (at -2.54 2.032) (size 0.4064 2.794) (layers "F.Cu" "F.Paste" "F.Mask"))
  (pad "2" smd rect (at -2.54 -2.032) (size 0.4064 2.794) (layers "F.Cu" "F.Paste" "F.Mask"))
  (pad "3" smd rect (at -1.27 2.032) (size 0.4064 2.794) (layers "F.Cu" "F.Paste" "F.Mask"))
  (pad "4" smd rect (at -1.27 -2.032) (size 0.4064 2.794) (layers "F.Cu" "F.Paste" "F.Mask"))
  (pad "5" smd rect (at 0 2.032) (size 0.4064 2.794) (layers "F.Cu" "F.Paste" "F.Mask"))
  (pad "6" smd rect (at 0 -2.032) (size 0.4064 2.794) (layers "F.Cu" "F.Paste" "F.Mask"))
  (pad "7" smd rect (at 1.27 2.032) (size 0.4064 2.794) (layers "F.Cu" "F.Paste" "F.Mask"))
  (pad "8" smd rect (at 1.27 -2.032) (size 0.4064 2.794) (layers "F.Cu" "F.Paste" "F.Mask"))
  (pad "9" smd rect (at 2.54 2.032) (size 0.4064 2.794) (layers "F.Cu" "F.Paste" "F.Mask"))
  (pad "10" smd rect (at 2.54 -2.032) (size 0.4064 2.794) (layers "F.Cu" "F.Paste" "F.Mask"))
)
