(footprint "RMZ16_TEX" (version 20211014) (generator pcbnew)
  (layer "F.Cu")
  (tags "LMH6401IRMZR ")
  (attr smd)
  (fp_text reference "REF**" (at 0 0 unlocked) (layer F.SilkS)
    (effects (font (size 1 1) (thickness 0.15)))
  )
  (fp_text value RMZ16_TEX (at 0 0 unlocked) (layer F.Fab)
    (effects (font (size 1 1) (thickness 0.15)))
  )
  (fp_text user "${REFERENCE}" (at 0 0 unlocked) (layer F.Fab)
    (effects (font (size 1 1) (thickness 0.15)))
  )
  (fp_text user "*" (at -2.3876 -1.381) (layer F.SilkS)
    (effects (font (size 1 1) (thickness 0.15)))
  )
  (fp_text user "*" (at -1.0414 -1.381) (layer F.Fab)
    (effects (font (size 1 1) (thickness 0.15)))
  )
  (fp_poly (pts
      (xy 2.2606 0.059499)
      (xy 2.2606 0.4405)
      (xy 2.0066 0.4405)
      (xy 2.0066 0.059499)
    ) (layer "F.SilkS") (width 0) (fill solid))
  (fp_line (start -1.651 1.651) (end -1.651 0.9532) (layer "F.CrtYd") (width 0.1524))
  (fp_line (start -1.8542 0.9532) (end -1.651 0.9532) (layer "F.CrtYd") (width 0.1524))
  (fp_line (start -1.8542 0.9532) (end -1.8542 -0.9532) (layer "F.CrtYd") (width 0.1524))
  (fp_line (start -1.8542 -0.9532) (end -1.651 -0.9532) (layer "F.CrtYd") (width 0.1524))
  (fp_line (start -1.651 -0.9532) (end -1.651 -1.651) (layer "F.CrtYd") (width 0.1524))
  (fp_line (start -1.651 -1.651) (end -0.9532 -1.651) (layer "F.CrtYd") (width 0.1524))
  (fp_line (start -0.9532 -1.651) (end -0.9532 -1.8542) (layer "F.CrtYd") (width 0.1524))
  (fp_line (start -0.9532 -1.8542) (end 0.9532 -1.8542) (layer "F.CrtYd") (width 0.1524))
  (fp_line (start 0.9532 -1.8542) (end 0.9532 -1.651) (layer "F.CrtYd") (width 0.1524))
  (fp_line (start 0.9532 -1.651) (end 1.651 -1.651) (layer "F.CrtYd") (width 0.1524))
  (fp_line (start 1.651 -1.651) (end 1.651 -0.9532) (layer "F.CrtYd") (width 0.1524))
  (fp_line (start 1.651 -0.9532) (end 1.8542 -0.9532) (layer "F.CrtYd") (width 0.1524))
  (fp_line (start 1.8542 -0.9532) (end 1.8542 0.9532) (layer "F.CrtYd") (width 0.1524))
  (fp_line (start 1.8542 0.9532) (end 1.651 0.9532) (layer "F.CrtYd") (width 0.1524))
  (fp_line (start 1.651 0.9532) (end 1.651 1.651) (layer "F.CrtYd") (width 0.1524))
  (fp_line (start 1.651 1.651) (end 0.9532 1.651) (layer "F.CrtYd") (width 0.1524))
  (fp_line (start 0.9532 1.651) (end 0.9532 1.8542) (layer "F.CrtYd") (width 0.1524))
  (fp_line (start 0.9532 1.8542) (end -0.9532 1.8542) (layer "F.CrtYd") (width 0.1524))
  (fp_line (start -0.9532 1.8542) (end -0.9532 1.651) (layer "F.CrtYd") (width 0.1524))
  (fp_line (start -0.9532 1.651) (end -1.651 1.651) (layer "F.CrtYd") (width 0.1524))
  (fp_text user "*" (at -2.3876 -1.381 unlocked) (layer "F.SilkS")
    (effects (font (size 1 1) (thickness 0.15)))
  )
  (fp_text user "*" (at -1.0414 -1.381 unlocked) (layer "F.Fab")
    (effects (font (size 1 1) (thickness 0.15)))
  )
  (fp_line (start -1.5494 -0.2794) (end -0.2794 -1.5494) (layer "F.Fab") (width 0.0254))
  (fp_line (start 0.5976 -1.5494) (end 0.9024 -1.5494) (layer "F.Fab") (width 0.0254))
  (fp_line (start 0.9024 -1.5494) (end 0.9024 -1.5494) (layer "F.Fab") (width 0.0254))
  (fp_line (start 0.9024 -1.5494) (end 0.5976 -1.5494) (layer "F.Fab") (width 0.0254))
  (fp_line (start 0.5976 -1.5494) (end 0.5976 -1.5494) (layer "F.Fab") (width 0.0254))
  (fp_line (start 0.0976 -1.5494) (end 0.4024 -1.5494) (layer "F.Fab") (width 0.0254))
  (fp_line (start 0.4024 -1.5494) (end 0.4024 -1.5494) (layer "F.Fab") (width 0.0254))
  (fp_line (start 0.4024 -1.5494) (end 0.0976 -1.5494) (layer "F.Fab") (width 0.0254))
  (fp_line (start 0.0976 -1.5494) (end 0.0976 -1.5494) (layer "F.Fab") (width 0.0254))
  (fp_line (start -0.4024 -1.5494) (end -0.0976 -1.5494) (layer "F.Fab") (width 0.0254))
  (fp_line (start -0.0976 -1.5494) (end -0.0976 -1.5494) (layer "F.Fab") (width 0.0254))
  (fp_line (start -0.0976 -1.5494) (end -0.4024 -1.5494) (layer "F.Fab") (width 0.0254))
  (fp_line (start -0.4024 -1.5494) (end -0.4024 -1.5494) (layer "F.Fab") (width 0.0254))
  (fp_line (start -0.9024 -1.5494) (end -0.5976 -1.5494) (layer "F.Fab") (width 0.0254))
  (fp_line (start -0.5976 -1.5494) (end -0.5976 -1.5494) (layer "F.Fab") (width 0.0254))
  (fp_line (start -0.5976 -1.5494) (end -0.9024 -1.5494) (layer "F.Fab") (width 0.0254))
  (fp_line (start -0.9024 -1.5494) (end -0.9024 -1.5494) (layer "F.Fab") (width 0.0254))
  (fp_line (start -1.5494 -0.5976) (end -1.5494 -0.9024) (layer "F.Fab") (width 0.0254))
  (fp_line (start -1.5494 -0.9024) (end -1.5494 -0.9024) (layer "F.Fab") (width 0.0254))
  (fp_line (start -1.5494 -0.9024) (end -1.5494 -0.5976) (layer "F.Fab") (width 0.0254))
  (fp_line (start -1.5494 -0.5976) (end -1.5494 -0.5976) (layer "F.Fab") (width 0.0254))
  (fp_line (start -1.5494 -0.0976) (end -1.5494 -0.4024) (layer "F.Fab") (width 0.0254))
  (fp_line (start -1.5494 -0.4024) (end -1.5494 -0.4024) (layer "F.Fab") (width 0.0254))
  (fp_line (start -1.5494 -0.4024) (end -1.5494 -0.0976) (layer "F.Fab") (width 0.0254))
  (fp_line (start -1.5494 -0.0976) (end -1.5494 -0.0976) (layer "F.Fab") (width 0.0254))
  (fp_line (start -1.5494 0.4024) (end -1.5494 0.0976) (layer "F.Fab") (width 0.0254))
  (fp_line (start -1.5494 0.0976) (end -1.5494 0.0976) (layer "F.Fab") (width 0.0254))
  (fp_line (start -1.5494 0.0976) (end -1.5494 0.4024) (layer "F.Fab") (width 0.0254))
  (fp_line (start -1.5494 0.4024) (end -1.5494 0.4024) (layer "F.Fab") (width 0.0254))
  (fp_line (start -1.5494 0.9024) (end -1.5494 0.5976) (layer "F.Fab") (width 0.0254))
  (fp_line (start -1.5494 0.5976) (end -1.5494 0.5976) (layer "F.Fab") (width 0.0254))
  (fp_line (start -1.5494 0.5976) (end -1.5494 0.9024) (layer "F.Fab") (width 0.0254))
  (fp_line (start -1.5494 0.9024) (end -1.5494 0.9024) (layer "F.Fab") (width 0.0254))
  (fp_line (start -0.5976 1.5494) (end -0.9024 1.5494) (layer "F.Fab") (width 0.0254))
  (fp_line (start -0.9024 1.5494) (end -0.9024 1.5494) (layer "F.Fab") (width 0.0254))
  (fp_line (start -0.9024 1.5494) (end -0.5976 1.5494) (layer "F.Fab") (width 0.0254))
  (fp_line (start -0.5976 1.5494) (end -0.5976 1.5494) (layer "F.Fab") (width 0.0254))
  (fp_line (start -0.0976 1.5494) (end -0.4024 1.5494) (layer "F.Fab") (width 0.0254))
  (fp_line (start -0.4024 1.5494) (end -0.4024 1.5494) (layer "F.Fab") (width 0.0254))
  (fp_line (start -0.4024 1.5494) (end -0.0976 1.5494) (layer "F.Fab") (width 0.0254))
  (fp_line (start -0.0976 1.5494) (end -0.0976 1.5494) (layer "F.Fab") (width 0.0254))
  (fp_line (start 0.4024 1.5494) (end 0.0976 1.5494) (layer "F.Fab") (width 0.0254))
  (fp_line (start 0.0976 1.5494) (end 0.0976 1.5494) (layer "F.Fab") (width 0.0254))
  (fp_line (start 0.0976 1.5494) (end 0.4024 1.5494) (layer "F.Fab") (width 0.0254))
  (fp_line (start 0.4024 1.5494) (end 0.4024 1.5494) (layer "F.Fab") (width 0.0254))
  (fp_line (start 0.9024 1.5494) (end 0.5976 1.5494) (layer "F.Fab") (width 0.0254))
  (fp_line (start 0.5976 1.5494) (end 0.5976 1.5494) (layer "F.Fab") (width 0.0254))
  (fp_line (start 0.5976 1.5494) (end 0.9024 1.5494) (layer "F.Fab") (width 0.0254))
  (fp_line (start 0.9024 1.5494) (end 0.9024 1.5494) (layer "F.Fab") (width 0.0254))
  (fp_line (start 1.5494 0.5976) (end 1.5494 0.9024) (layer "F.Fab") (width 0.0254))
  (fp_line (start 1.5494 0.9024) (end 1.5494 0.9024) (layer "F.Fab") (width 0.0254))
  (fp_line (start 1.5494 0.9024) (end 1.5494 0.5976) (layer "F.Fab") (width 0.0254))
  (fp_line (start 1.5494 0.5976) (end 1.5494 0.5976) (layer "F.Fab") (width 0.0254))
  (fp_line (start 1.5494 0.0976) (end 1.5494 0.4024) (layer "F.Fab") (width 0.0254))
  (fp_line (start 1.5494 0.4024) (end 1.5494 0.4024) (layer "F.Fab") (width 0.0254))
  (fp_line (start 1.5494 0.4024) (end 1.5494 0.0976) (layer "F.Fab") (width 0.0254))
  (fp_line (start 1.5494 0.0976) (end 1.5494 0.0976) (layer "F.Fab") (width 0.0254))
  (fp_line (start 1.5494 -0.4024) (end 1.5494 -0.0976) (layer "F.Fab") (width 0.0254))
  (fp_line (start 1.5494 -0.0976) (end 1.5494 -0.0976) (layer "F.Fab") (width 0.0254))
  (fp_line (start 1.5494 -0.0976) (end 1.5494 -0.4024) (layer "F.Fab") (width 0.0254))
  (fp_line (start 1.5494 -0.4024) (end 1.5494 -0.4024) (layer "F.Fab") (width 0.0254))
  (fp_line (start 1.5494 -0.9024) (end 1.5494 -0.5976) (layer "F.Fab") (width 0.0254))
  (fp_line (start 1.5494 -0.5976) (end 1.5494 -0.5976) (layer "F.Fab") (width 0.0254))
  (fp_line (start 1.5494 -0.5976) (end 1.5494 -0.9024) (layer "F.Fab") (width 0.0254))
  (fp_line (start 1.5494 -0.9024) (end 1.5494 -0.9024) (layer "F.Fab") (width 0.0254))
  (fp_line (start -1.5494 1.5494) (end 1.5494 1.5494) (layer "F.Fab") (width 0.0254))
  (fp_line (start 1.5494 1.5494) (end 1.5494 -1.5494) (layer "F.Fab") (width 0.0254))
  (fp_line (start 1.5494 -1.5494) (end -1.5494 -1.5494) (layer "F.Fab") (width 0.0254))
  (fp_line (start -1.5494 -1.5494) (end -1.5494 1.5494) (layer "F.Fab") (width 0.0254))
  (pad "1" smd rect (at -1.397 -0.750001 90) (size 0.254 0.7112) (layers "F.Cu" "F.Paste" "F.Mask"))
  (pad "2" smd rect (at -1.397 -0.25 90) (size 0.254 0.7112) (layers "F.Cu" "F.Paste" "F.Mask"))
  (pad "3" smd rect (at -1.397 0.25 90) (size 0.254 0.7112) (layers "F.Cu" "F.Paste" "F.Mask"))
  (pad "4" smd rect (at -1.397 0.750001 90) (size 0.254 0.7112) (layers "F.Cu" "F.Paste" "F.Mask"))
  (pad "5" smd rect (at -0.750001 1.397) (size 0.254 0.7112) (layers "F.Cu" "F.Paste" "F.Mask"))
  (pad "6" smd rect (at -0.25 1.397) (size 0.254 0.7112) (layers "F.Cu" "F.Paste" "F.Mask"))
  (pad "7" smd rect (at 0.25 1.397) (size 0.254 0.7112) (layers "F.Cu" "F.Paste" "F.Mask"))
  (pad "8" smd rect (at 0.750001 1.397) (size 0.254 0.7112) (layers "F.Cu" "F.Paste" "F.Mask"))
  (pad "9" smd rect (at 1.397 0.750001 90) (size 0.254 0.7112) (layers "F.Cu" "F.Paste" "F.Mask"))
  (pad "10" smd rect (at 1.397 0.25 90) (size 0.254 0.7112) (layers "F.Cu" "F.Paste" "F.Mask"))
  (pad "11" smd rect (at 1.397 -0.25 90) (size 0.254 0.7112) (layers "F.Cu" "F.Paste" "F.Mask"))
  (pad "12" smd rect (at 1.397 -0.750001 90) (size 0.254 0.7112) (layers "F.Cu" "F.Paste" "F.Mask"))
  (pad "13" smd rect (at 0.750001 -1.397) (size 0.254 0.7112) (layers "F.Cu" "F.Paste" "F.Mask"))
  (pad "14" smd rect (at 0.25 -1.397) (size 0.254 0.7112) (layers "F.Cu" "F.Paste" "F.Mask"))
  (pad "15" smd rect (at -0.25 -1.397) (size 0.254 0.7112) (layers "F.Cu" "F.Paste" "F.Mask"))
  (pad "16" smd rect (at -0.750001 -1.397) (size 0.254 0.7112) (layers "F.Cu" "F.Paste" "F.Mask"))
  (pad "17" smd rect (at -1.25 -1.25) (size 0.254 0.254) (layers "F.Cu" "F.Paste" "F.Mask"))
  (pad "18" smd rect (at -1.25 1.25) (size 0.254 0.254) (layers "F.Cu" "F.Paste" "F.Mask"))
  (pad "19" smd rect (at 1.25 1.25) (size 0.254 0.254) (layers "F.Cu" "F.Paste" "F.Mask"))
  (pad "20" smd rect (at 1.25 -1.25) (size 0.254 0.254) (layers "F.Cu" "F.Paste" "F.Mask"))
)
